Filters • edeaR
…
## 2 traces 
## 500 cases 
## 761 instances of 2 activities 
## 2 resources 
## Events occurred from 2017-01-02 11:41:53 until 2018-05-05 01:34:30 
##  
## # Variables were mapped as follows:
## Case identifier:        patient 
## Activity identifier:     handling 
## Resource identifier:     employee 
## Activity instance identifier:    handling_id 
## Timestamp:           time 
## Lifecycle transition:        registration_type 
## 
## # A tibble: 1,522 × 7
##    handling     patient employee handling_id regist…¹ time                .order
##    <fct>        <chr>   <fct>    <chr>       <fct>    <dttm>               <int>
##  1 Registration 1       r1       1           start    2017-01-02 11:41:53      1
##  2 Registration 2       r1       2           start    2017-01-02 11:41:53      2
##  3 Registration 3       r1       3           start    2017-01-04 01:34:05      3
##  4 Registration 4       r1       4           start    2017-01-04 01:34:04      4
##  5 Registration 5       r1       5           start    2017-01-04 16:07:47      5
##  6 Registration 6       r1       6           start    2017-01-04 16:07:47      6
##  7 Registration 7       r1       7           start    2017-01-05 04:56:11      7
##  8 Registration 8       r1       8           start    2017-01-05 04:56:11      8
##  9 Registration 9       r1       9           start    2017-01-06 05:58:54      9
## 10 Registration 10      r1       10          start    2017-01-06 05:58:54     10
## # … with 1,512 more rows, and abbreviated variable name ¹​registration_type
…
